Place,BodyweightKg,Name,BirthYear,Team,Best3BenchKg,Division,Sex,WeightClassKg,Equipment,TotalKg,Event
1,52,Hanna Svahn,1963,AK Frem,95,Open,F,52,Single-ply,95,B
1,57.6,Käte Vestergaard,1972,Thisted VF,75,Open,F,60,Single-ply,75,B
2,65.8,Kirsten Borggård,1960,Thisted VF,87.5,Open,F,67.5,Single-ply,87.5,B
DQ,71.2,Lissi Kjeldsen,1962,Thisted VF,,Open,F,75,Single-ply,,B
2,55.7,Morten Strange,1981,AK Frem,90,Open,M,56,Single-ply,90,B
1,59.2,Allan E Vith,1974,Tårnby SK,130,Open,M,60,Single-ply,130,B
2,59.3,Morten Rasmussen,1978,Tårnby SK,115,Open,M,60,Single-ply,115,B
1,66.8,Thomas Andersen,1979,Thisted VF,155.5,Open,M,67.5,Single-ply,155.5,B
1,74.2,Rene H Vester,1971,SK Atlas,152.5,Open,M,75,Single-ply,152.5,B
2,71.8,Martin Faber,1982,AK Frem,145,Open,M,75,Single-ply,145,B
3,73.6,Daniel Vittoriani,1979,Tårnby SK,142.5,Open,M,75,Single-ply,142.5,B
5,74.7,Henrik S Nielsen,1984,AK Frem,125,Open,M,75,Single-ply,125,B
6,73.8,Svend Møller,1942,Frederikshavn HC,120,Open,M,75,Single-ply,120,B
7,73.3,Lasse S Hille,1981,Tårnby SK,117.5,Open,M,75,Single-ply,117.5,B
8,69.3,Jesper Sand,1986,Aalborg SK,80,Open,M,75,Single-ply,80,B
1,82.2,Erik Rasmussen,1962,AK Frem,175,Open,M,82.5,Single-ply,175,B
2,82.2,Dan Kristensen,1969,Thisted VF,172.5,Open,M,82.5,Single-ply,172.5,B
3,81,Thomas Kær,1981,Teutonia,142.5,Open,M,82.5,Single-ply,142.5,B
4,80.6,Lars Cammerou,1981,AK Frem,127.5,Open,M,82.5,Single-ply,127.5,B
5,81,Johan C Brun,1938,Frederikshavn HC,100,Open,M,82.5,Single-ply,100,B
6,79.6,Thue Kramp,1979,Tårnby SK,90,Open,M,82.5,Single-ply,90,B
DQ,80.2,Kenneth Hulvej,1978,AK Frem,,Open,M,82.5,Single-ply,,B
1,89.3,Kim Salby,1961,AK Odin,187.5,Open,M,90,Single-ply,187.5,B
2,89.8,Johan Westerberg,1959,Horsens SK,180,Open,M,90,Single-ply,180,B
3,87.6,Martin Voldum,1973,AK Frem,160,Open,M,90,Single-ply,160,B
4,87.3,Gynther Pedersen,1980,Horsens SK,157.5,Open,M,90,Single-ply,157.5,B
5,84,René Als-Frederiksen,1979,Aalborg SK,145,Open,M,90,Single-ply,145,B
6,86.6,Peter Petersen,1962,Aarhus AK,110,Open,M,90,Single-ply,110,B
DQ,90,Mohammed Raja,1958,Aarhus AK,,Open,M,90,Single-ply,,B
2,99.1,Henrik Sørensen,1973,Gudenådalens SK,212.5,Open,M,100,Single-ply,212.5,B
3,99.7,Leif E Nielsen,1964,Aarhus AK,192.5,Open,M,100,Single-ply,192.5,B
4,99.1,Kim Dahl Hansen,1971,Tårnby SK,180,Open,M,100,Single-ply,180,B
5,91.2,Jens Klüver,1948,Ares,177.5,Open,M,100,Single-ply,177.5,B
6,95.2,Jes Largo,1965,Tårnby SK,175,Open,M,100,Single-ply,175,B
7,97.7,Søren Ø Bertelsen,1961,Horsens SK,172.5,Open,M,100,Single-ply,172.5,B
8,90.4,Christian Hansen,1975,Aarhus AK,160,Open,M,100,Single-ply,160,B
9,90.6,Morten Grabowski,1980,Thisted VF,160,Open,M,100,Single-ply,160,B
10,96.7,Jesper E Overgaard,1974,Aalborg SK,160,Open,M,100,Single-ply,160,B
12,99.2,Jørgen Rasmussen,1973,Horsens SK,152.5,Open,M,100,Single-ply,152.5,B
13,91.7,Troels Rubech,1979,Grenå SK,150,Open,M,100,Single-ply,150,B
14,94.6,Henrik W Madsen,1981,Teutonia,140,Open,M,100,Single-ply,140,B
15,90.9,Peter J Jensen,1983,Aalborg SK,135,Open,M,100,Single-ply,135,B
16,96.5,Henning Friis,1980,Odense BBC,107.5,Open,M,100,Single-ply,107.5,B
DQ,96.3,Johnny Kosela,1972,Aarhus AK,,Open,M,100,Single-ply,,B
DQ,91.9,Mikkel B Christensen,1976,Aalborg SK,,Open,M,100,Single-ply,,B
1,109.3,Lars Sørige,1968,Frederikshavn HC,227.5,Open,M,110,Single-ply,227.5,B
2,107.8,Thomas N Thomsen,1976,Aalborg SK,200,Open,M,110,Single-ply,200,B
3,106.5,Asbjørn Ettrup,1983,Aalborg SK,200.5,Open,M,110,Single-ply,200.5,B
4,106.6,Tonni Jensen,1981,Horsens SK,182.5,Open,M,110,Single-ply,182.5,B
5,107.4,Allan Fuglsang,1950,SK Atlas,180,Open,M,110,Single-ply,180,B
6,,Casper T. Nielsen,1979,Aalborg SK,177.5,Open,M,110,Single-ply,177.5,B
7,101.8,Claus Jørgensen,1964,Tårnby SK,172.5,Open,M,110,Single-ply,172.5,B
10,106.7,Christian Sand,1979,Aalborg SK,155,Open,M,110,Single-ply,155,B
11,107.4,Rasmus Brøndum,1981,Aalborg SK,140,Open,M,110,Single-ply,140,B
2,124.1,Morten Sørig,1969,Horsens SK,220,Open,M,125,Single-ply,220,B
3,119.8,John S Christensen,1961,Aalborg SK,217.5,Open,M,125,Single-ply,217.5,B
4,114.8,Sune Bang,1977,Aarhus AK,215,Open,M,125,Single-ply,215,B
5,110.7,Søren Eggebrecht,1959,Aarhus AK,210,Open,M,125,Single-ply,210,B
6,110.7,Stephan Vorup,1973,Thisted VF,197.5,Open,M,125,Single-ply,197.5,B
7,123,Jan F Knudsen,1974,AK Frem,192.5,Open,M,125,Single-ply,192.5,B
8,113.7,Jens Jepsen,1970,Tårnby SK,185,Open,M,125,Single-ply,185,B
1,163.6,Niels Stærkjær,1966,Aarhus AK,285,Open,M,125+,Single-ply,285,B
